project;name;type;pdb;children;group;Nc
S;r0 module assembly;assembly;MODULE;['r0 module'];Strips ABS - R0;1
S;r0 module;assembly;MODULE;['hybrid-sensor glue', 'powerboard-sensor glue', 'testing frame', 'bond wire', 'r0 sensor', 'short hv tab', 'r0 power board assembly', 'r0_h0  hybrid assembly', 'r0_h1 hybrid assembly'];Strips ABS - R0;9
S;hybrid-sensor glue;component;GLUE;[];Strips ABS - R0;0
S;powerboard-sensor glue;component;GLUE;[];Strips ABS - R0;0
S;testing frame;component;MODULE_FRAME;[];Strips ABS - R0;0
S;bond wire;component;nan;[];Strips ABS - R0;0
S;r0 sensor;component;SENSOR;[];Strips ABS - R0;0
S;short hv tab;component;HV_TAB_SHEET;[];Strips ABS - R0;0
S;r0 power board assembly;assembly;PWB;['amac', 'coil', 'hvmux', 'shieldbox', 'r0/r1 powerboard pcb', 'bpol12v', 'linpol12v', 'r0 smd components'];Strips ABS - R0;8
S;amac;component;AMAC;[];Strips ABS - R0;0
S;coil;component;PWB_COIL;[];Strips ABS - R0;0
S;hvmux;component;HVMUX;[];Strips ABS - R0;0
S;shieldbox;component;PWB_SHIELDBOX;[];Strips ABS - R0;0
S;r0/r1 powerboard pcb;component;PB_FLEX;[];Strips ABS - R0;0
S;bpol12v;component;BPOL12V;[];Strips ABS - R0;0
S;linpol12v;component;PWB_LINPOL;[];Strips ABS - R0;0
S;r0 smd components;component;nan;[];Strips ABS - R0;0
S;r0_h0  hybrid assembly;assembly;HYBRID_ASSEMBLY;['bond wire', 'asic- hybrid glue', 'abc*', 'hcc*', 'r0_h0  hybrid flex assembly'];Strips ABS - R0;5
S;bond wire;component;nan;[];Strips ABS - R0;0
S;asic- hybrid glue;component;GLUE;[];Strips ABS - R0;0
S;abc*;component;ABC;[];Strips ABS - R0;0
S;hcc*;component;HCC;[];Strips ABS - R0;0
S;r0_h0  hybrid flex assembly;assembly;HYBRID_FLEX;['r0_h0   smd components', 'bare r0_h0  hybrid'];Strips ABS - R0;2
S;r0_h0   smd components;component;nan;[];Strips ABS - R0;0
S;bare r0_h0  hybrid;component;HYBRID;[];Strips ABS - R0;0
S;r0_h1 hybrid assembly;assembly;HYBRID_ASSEMBLY;['bond wire', 'asic- hybrid glue', 'abc*', 'hcc*', 'r0_h1 hybrid flex assembly'];Strips ABS - R0;5
S;bond wire;component;nan;[];Strips ABS - R0;0
S;asic- hybrid glue;component;GLUE;[];Strips ABS - R0;0
S;abc*;component;ABC;[];Strips ABS - R0;0
S;hcc*;component;HCC;[];Strips ABS - R0;0
S;r0_h1 hybrid flex assembly;assembly;HYBRID_FLEX;['r0_h1 smd components', 'bare r0_h1 hybrid'];Strips ABS - R0;2
S;r0_h1 smd components;component;nan;[];Strips ABS - R0;0
S;bare r0_h1 hybrid;component;HYBRID;[];Strips ABS - R0;0
S;r5 ring module assembly;assembly;MODULE;['bond wire (stitched)', 'testing frame', 'r5_m0 module', 'r5_m1 module'];Strips ABS - R5;4
S;bond wire (stitched);component;nan;[];Strips ABS - R5;0
S;testing frame;component;MODULE_FRAME;[];Strips ABS - R5;0
S;r5_m0 module;assembly;MODULE;['hybrid-sensor glue', 'powerboard-sensor glue', 'bond wire', 'r5 sensor', 'short hv tab', 'r5 power board assembly', 'r5_h0  hybrid assembly'];Strips ABS - R5;7
S;hybrid-sensor glue;component;GLUE;[];Strips ABS - R5;0
S;powerboard-sensor glue;component;GLUE;[];Strips ABS - R5;0
S;bond wire;component;nan;[];Strips ABS - R5;0
S;r5 sensor;component;SENSOR;[];Strips ABS - R5;0
S;short hv tab;component;HV_TAB_SHEET;[];Strips ABS - R5;0
S;r5 power board assembly;assembly;PWB;['amac', 'coil', 'hvmux', 'shieldbox', 'r4/r5 powerboard pcb', 'bpol12v', 'linpol12v', 'r5 smd components'];Strips ABS - R5;8
S;amac;component;AMAC;[];Strips ABS - R5;0
S;coil;component;PWB_COIL;[];Strips ABS - R5;0
S;hvmux;component;HVMUX;[];Strips ABS - R5;0
S;shieldbox;component;PWB_SHIELDBOX;[];Strips ABS - R5;0
S;r4/r5 powerboard pcb;component;PB_FLEX;[];Strips ABS - R5;0
S;bpol12v;component;BPOL12V;[];Strips ABS - R5;0
S;linpol12v;component;PWB_LINPOL;[];Strips ABS - R5;0
S;r5 smd components;component;nan;[];Strips ABS - R5;0
S;r5_h0  hybrid assembly;assembly;HYBRID_ASSEMBLY;['bond wire', 'asic- hybrid glue', 'abc*', 'r5_h0  hybrid flex assembly'];Strips ABS - R5;4
S;bond wire;component;nan;[];Strips ABS - R5;0
S;asic- hybrid glue;component;GLUE;[];Strips ABS - R5;0
S;abc*;component;ABC;[];Strips ABS - R5;0
S;r5_h0  hybrid flex assembly;assembly;HYBRID;['r5_h0   smd components', 'bare r5_h0  hybrid'];Strips ABS - R5;2
S;r5_h0   smd components;component;nan;[];Strips ABS - R5;0
S;bare r5_h0  hybrid;component;HYBRID;[];Strips ABS - R5;0
S;r5_m1 module;assembly;MODULE;['hybrid-sensor glue', 'bond wire', 'sensor assembly', 'r5_h1  hybrid assembly'];Strips ABS - R5;4
S;hybrid-sensor glue;component;GLUE;[];Strips ABS - R5;0
S;bond wire;component;nan;[];Strips ABS - R5;0
S;sensor assembly;assembly;SENSOR;['r5 sensor', 'long hv tab'];Strips ABS - R5;2
S;r5 sensor;component;SENSOR;[];Strips ABS - R5;0
S;long hv tab;component;HV_TAB_SHEET;[];Strips ABS - R5;0
S;r5_h1  hybrid assembly;assembly;HYBRID_ASSEMBLY;['bond wire', 'asic- hybrid glue', 'abc*', 'hcc*', 'r5_h1  hybrid flex assembly'];Strips ABS - R5;5
S;bond wire;component;nan;[];Strips ABS - R5;0
S;asic- hybrid glue;component;GLUE;[];Strips ABS - R5;0
S;abc*;component;ABC;[];Strips ABS - R5;0
S;hcc*;component;HCC;[];Strips ABS - R5;0
S;r5_h1  hybrid flex assembly;assembly;HYBRID_FLEX;['r5_h1   smd components', 'bare r5_h1 hybrid'];Strips ABS - R5;2
S;r5_h1   smd components;component;nan;[];Strips ABS - R5;0
S;bare r5_h1 hybrid;component;HYBRID;[];Strips ABS - R5;0
S;long strip module assembly;assembly;MODULE;['long strip module'];Strips ABS - LS Module;1
S;long strip module;assembly;MODULE;['hybrid-sensor glue', 'powerboard-sensor glue', 'testing frame', 'bond wire', 'long strip sensor', 'hv tab', 'power board assembly', 'y hybrid assembly'];Strips ABS - LS Module;8
S;hybrid-sensor glue;component;GLUE;[];Strips ABS - LS Module;0
S;powerboard-sensor glue;component;GLUE;[];Strips ABS - LS Module;0
S;testing frame;component;MODULE_FRAME;[];Strips ABS - LS Module;0
S;bond wire;component;nan;[];Strips ABS - LS Module;0
S;long strip sensor;component;SENSOR;[];Strips ABS - LS Module;0
S;hv tab;component;HV_TAB_SHEET;[];Strips ABS - LS Module;0
S;power board assembly;assembly;PWB;['amac', 'coil', 'hvmux', 'shieldbox', 'power board pcb', 'bpol12v', 'linpol12v', 'smd components'];Strips ABS - LS Module;8
S;amac;component;AMAC;[];Strips ABS - LS Module;0
S;coil;component;PWB_COIL;[];Strips ABS - LS Module;0
S;hvmux;component;HVMUX;[];Strips ABS - LS Module;0
S;shieldbox;component;PWB_SHIELDBOX;[];Strips ABS - LS Module;0
S;power board pcb;component;PB_FLEX;[];Strips ABS - LS Module;0
S;bpol12v;component;BPOL12V;[];Strips ABS - LS Module;0
S;linpol12v;component;PWB_LINPOL;[];Strips ABS - LS Module;0
S;smd components;component;nan;[];Strips ABS - LS Module;0
S;y hybrid assembly;assembly;HYBRID_ASSEMBLY;['bond wire', 'asic-hybrid glue', 'abc*', 'hcc*', 'y hybrid flex assembly'];Strips ABS - LS Module;5
S;bond wire;component;nan;[];Strips ABS - LS Module;0
S;asic-hybrid glue;component;GLUE;[];Strips ABS - LS Module;0
S;abc*;component;ABC;[];Strips ABS - LS Module;0
S;hcc*;component;HCC;[];Strips ABS - LS Module;0
S;y hybrid flex assembly;assembly;HYBRID_FLEX;['smd components', 'bare y hybrid'];Strips ABS - LS Module;2
S;smd components;component;nan;[];Strips ABS - LS Module;0
S;bare y hybrid;component;HYBRID;[];Strips ABS - LS Module;0
S;short strip module assembly;assembly;MODULE;['short strip module'];Strips ABS - SS Module;1
S;short strip module;assembly;MODULE;['hybrid-sensor glue', 'powerboard-sensor glue', 'testing frame', 'bond wire', 'short strip sensor', 'hv tab', 'power board assembly', 'y  hybrid assembly', 'x hybrid assembly'];Strips ABS - SS Module;9
S;hybrid-sensor glue;component;GLUE;[];Strips ABS - SS Module;0
S;powerboard-sensor glue;component;GLUE;[];Strips ABS - SS Module;0
S;testing frame;component;MODULE_FRAME;[];Strips ABS - SS Module;0
S;bond wire;component;nan;[];Strips ABS - SS Module;0
S;short strip sensor;component;SENSOR;[];Strips ABS - SS Module;0
S;hv tab;component;HV_TAB_SHEET;[];Strips ABS - SS Module;0
S;power board assembly;assembly;PWB;['amac', 'coil', 'hvmux', 'shieldbox', 'power board pcb', 'bpol12v', 'linpol12v', 'smd components'];Strips ABS - SS Module;8
S;amac;component;AMAX;[];Strips ABS - SS Module;0
S;coil;component;PWB_COIL;[];Strips ABS - SS Module;0
S;hvmux;component;HVMUX;[];Strips ABS - SS Module;0
S;shieldbox;component;PWB_SHIELDBOX;[];Strips ABS - SS Module;0
S;power board pcb;component;PB_FLEX;[];Strips ABS - SS Module;0
S;bpol12v;component;BPOL12V;[];Strips ABS - SS Module;0
S;linpol12v;component;PWB_LINPOL;[];Strips ABS - SS Module;0
S;smd components;component;nan;[];Strips ABS - SS Module;0
S;y  hybrid assembly;assembly;HYBRID_ASSEMBLY;['bond wire', 'asic- hybrid glue', 'abc*', 'hcc*', 'y hybrid flex assembly'];Strips ABS - SS Module;5
S;bond wire;component;nan;[];Strips ABS - SS Module;0
S;asic- hybrid glue;component;GLUE;[];Strips ABS - SS Module;0
S;abc*;component;ABC;[];Strips ABS - SS Module;0
S;hcc*;component;HCC;[];Strips ABS - SS Module;0
S;y hybrid flex assembly;assembly;HYBRID_FLEX;['smd components', 'bare y hybrid'];Strips ABS - SS Module;2
S;smd components;component;nan;[];Strips ABS - SS Module;0
S;bare y hybrid;component;HYBRID;[];Strips ABS - SS Module;0
S;x hybrid assembly;assembly;HYBRID_ASSEMBLY;['bond wire', 'asic- hybrid glue', 'abc*', 'hcc*', 'x hybrid flex assembly'];Strips ABS - SS Module;5
S;bond wire;component;nan;[];Strips ABS - SS Module;0
S;asic- hybrid glue;component;GLUE;[];Strips ABS - SS Module;0
S;abc*;component;ABC;[];Strips ABS - SS Module;0
S;hcc*;component;HCC;[];Strips ABS - SS Module;0
S;x hybrid flex assembly;assembly;HYBRID_FLEX;['smd components', 'bare x hybrid'];Strips ABS - SS Module;2
S;smd components;component;nan;[];Strips ABS - SS Module;0
S;bare x hybrid;component;HYBRID;[];Strips ABS - SS Module;0
