{
  "population": [
    {
      "alias": "RAL_mods",
      "spec": {
        "projCode": "S",
        "compTypeCode": "MODULE",
        "clusCode": "STRIPS-LC-UKCHINA",
        "filters": []
      }
    }
  ],
  "extraction": [
    {
      "usePopulations": "RAL_mods",
      "alias": "RAL_mods_comp_stuff",
      "compSummary": false,
      "stageOrder": false
    },
    {
      "usePopulations": "RAL_mods",
      "alias": "RAL_mods_stage_stuff",
      "stageSummary": false
    },
    {
      "usePopulations": "RAL_mods",
      "alias": "RAL_mods_test_stuff",
      "testSummary": false,
      "spec": "all"
    }
  ],
  "visualisation": [
    {
      "useExtractions": [
        "RAL_mods_comp_stuff"
      ],
      "compSummary": false,
      "alias": "RAL_mods_comp_stuff"
    },
    {
      "useExtractions": [
        "RAL_mods_stage_stuff"
      ],
      "stageSummary": false,
      "alias": "RAL_mods_stage_stuff"
    },
    {
      "useExtractions": [
        "RAL_mods_test_stuff"
      ],
      "testSummary": false,
      "alias": "RAL_mods_test_stuff"
    }
  ],
  "distribution": [
    {
      "alias": "RAL_mod_stuff",
      "reportName": "compTypeS",
      "location": "local",
      "reportDir": "/code/reporting/htmls/",
      "useVisualisations": [
        "RAL_mods_comp_stuff",
        "RAL_mods_stage_stuff",
        "RAL_mods_test_stuff"
      ]
    }
  ]
}