{
    "population":[
            {
                "alias": "COMPONENT_LIST_EXAMPLE",
                "spec":{
                        "compList": ["SERIAL_NUMBER1","SERIAL_NUMBER2"],
                        "filters": []
                }
            },
            {
                "alias": "INSTITUTION_POPULATION_EXAMPLE",
                "spec":{
                        "projCode": "PROJECT_CODE",
                        "compTypeCode": "COMPONENT_TYPE_CODE",
                        "instCode": "INSTITUTION_CODE",
                        "filters": []
                }
            },
            {
                "alias": "CLUSTER_POPULATION_EXAMPLE",
                "spec":{
                        "projCode": "PROJECT_CODE",
                        "compTypeCode": "COMPONENT_TYPE_CODE",
                        "clusCode": "CLUSTER_CODE",
                        "filters": []
                }
            },
            {
                "alias": "PROJECT_POPULATION_EXAMPLE",
                "spec":{
                        "projCode": "PROJECT_CODE",
                        "compTypeCode": "COMPONENT_TYPE_CODE",
                        "filters": []
                }
            }
        ],
    "extraction":[
            {
                "usePopulations": [
                    "POPULATION_ALIAS1",
                    "POPULATION_ALIAS2"
                ],
                "alias": "EXTRACTION_TEST_TYPE_EXAMPLE",
                "spec":[
                        {"testCode":"TEST_TYPE_CODE1"},
                        {"testCode":"TEST_TYPE_CODE2"}
                ]
            },
            {
                "usePopulations": ["POPULATION_ALIAS"],
                "alias": "EXTRACTION_COMP_SUMMARY",
                "compSummary": true,
                "stageOrder": true
            }
        ],
    "visualisation":[
            {
                "useExtractions": [
                    "EXTRACTION_ALIAS1",
                    "EXTRACTION_ALIAS2"
                ],
                "alias": "VISUALISATION_DQ_EXAMPLE",
                "DQ": true,
                "match_pc": "MATCH_STRING",
                "correlation":[
                        "PARAMETER_CODE1",
                        "PARAMETER_CODE2"
                ]
            },
            {
                "useExtractions": ["EXTRACTION_ALIAS"],
                "alias": "VISUALISATION_DQ_WITH_CUSTOM_EXAMPLE",
                "DQ": true,
                "custom":[
                        {
                            "type": "point",
                            "x": "date:T",
                            "y": "paraCode=BOW:Q",
                            "color": "institution:N",
                            "title": "timeline of BOW"
                        },
                        {
                            "type": "hist",
                            "x": "paraCode=BOW:Q",
                            "y": "count():Q",
                            "color": "institution:N",
                            "title": "histogram of BOW"
                        }
                ]
            },

            {
                "useExtractions": [
                    "EXTRACTION_ALIAS1",
                    "EXTRACTION_ALIAS2"
                ],
                "alias": "VISUALISATION_WITH_LINE_PLOT",
                "match_pc": "MATCH_STRING",
                "combinations":[
                        {
                        "xCode": "PARAMETER_CODE1",
                        "yCode": "PARAMETER_CODE2"
                        }
                ]
            }
        ],
    "distribution":[
            {
                "alias": "DISTRIBUTION_LOCAL_EXAMPLE",
                "reportName": "REPORT_NAME",
                "location": "local",
                "reportDir": "REPORT_DIRECTORY",
                "useVisualisations":[
                        "VISUALISATION_ALIAS1", "VISUALISATION_ALIAS2"
                ]
            },
            {
                "alias": "DISTRIBUTION_REMOTE_EXAMPLE",
                "reportName": "REPORT_NAME",
                "location": "local",
                "reportDir": "/code/reporting/htmls/",
                "useVisualisations":[
                        "VISUALISATION_ALIAS1", "VISUALISATION_ALIAS2"
                ]
            }
    ]
}
