﻿,serialNumber
1,20USBML1235341
2,20USBML1235342
3,20USBML1235334
4,20USBML1235337
5,20USBML1235335
6,20USBML1235336
7,20USBML1235345
8,20USBML1235343
9,20USBML1235339
10,20USBML1235340
11,20USBML1235344
12,20USBML1235338
