﻿Drawing No,
Title,
Customer,
Order No,
Serial No,20UPGPQ2110392
Material Ref,
Date,18/04/2024 12:26
Inspector,
Notes,
Identifier,Actual1,Actual2,Actual3
Y1,40.5563,,
Y-2,40.5443,,
X-1,39.5357,,
X--2,39.5456,,
GA1-1,0.2051,,
GA1-3,0.2068,,
GA1-2,0.2062,,
GA2-1,0.2016,,
GA2-2,0.2022,,
GA2-3,0.2028,,
HV-2,1.9047,,
HV-1,1.9098,,
FTM-3,1.5915,,
FTM-1,1.6213,,
FTM-2,1.6181,,
GA3-1,0.2023,,
GA3-2,0.2054,,
GA3-3,0.2035,,
GA4-1,0.2134,,
GA4-2,0.2125,,
GA4-3,0.2066,,
