{"component": "20UPGB12100014",
 "testType": "SENSOR_IV",
 "institution": "GL",
 "runNumber": "something",
 "date": "2022-04-13T18:49:32.608Z",
 "passed": true,
 "problems": false,
 "properties": {"HUM": 48.21843137254903, "TEMP": 25.889215686274504},
 "results": {"VOLTAGE": [0,
   1,
   2,
   3,
   4,
   5,
   6,
   7,
   8,
   9,
   10,
   11,
   12,
   13,
   14,
   15,
   16,
   17,
   18,
   19,
   20,
   21,
   22,
   23,
   24,
   25,
   26,
   27,
   28,
   29,
   30,
   31,
   32,
   33,
   34,
   35,
   36,
   37,
   38,
   39,
   40,
   41,
   42,
   43,
   44,
   45,
   46,
   47,
   48,
   49,
   50],
  "CURRENT": [0.00044522711132439694,
   1.1271031411806416,
   1.5777573685606305,
   1.7563875923824415,
   1.8562769861097193,
   1.942603324460016,
   1.991348658162748,
   2.0354757409733994,
   2.0709745291486232,
   2.1041559210277367,
   2.134101912186501,
   2.163672598539848,
   2.1902313769258654,
   2.2159026571389964,
   2.2418574237350115,
   2.2663988339079437,
   2.2909604417364866,
   2.3151816261707827,
   2.339692649959757,
   2.364306699772448,
   2.3885687589875317,
   2.4132768447695137,
   2.43813758167564,
   2.463796455613664,
   2.489557876105834,
   2.5174145786161106,
   2.543359396218561,
   2.5700880266995245,
   2.597536580738882,
   2.6262811410242213,
   2.654582731361168,
   2.683835349588941,
   2.713969172951502,
   2.7450399397862904,
   2.7796188655926968,
   2.812791267417384,
   2.8465820051854576,
   2.8837975341537776,
   2.9225382558222326,
   2.9577424099470853,
   2.9998507460696406,
   3.0397943370202296,
   3.0795427239223927,
   3.12054120785927,
   3.1643158206027455,
   3.2075926839995286,
   3.2522903355977193,
   3.2997494322469456,
   3.3486588644097903,
   3.3986017332956964,
   3.4546097124329247],
  "CURRENT_SIGMA": [0.00012944586952272968,
   0.0038174832663535234,
   0.0016179328409355789,
   0.0009937195501974415,
   0.001215179566063257,
   0.001175462084080518,
   0.0010691602571904337,
   0.0008870542010247151,
   0.0012475226161387956,
   0.0009963463030269347,
   0.001160084211502726,
   0.0010366129889640646,
   0.000990675975730166,
   0.0008357282652472998,
   0.000919183478238551,
   0.0009411601351523452,
   0.0008662392856479291,
   0.0007869249293576394,
   0.0010210127923890391,
   0.0012299176350020439,
   0.0009911459136888751,
   0.0008757824501553191,
   0.0008533651621667694,
   0.001042712253905565,
   0.000832534710654461,
   0.000828565856029502,
   0.0009577867774777528,
   0.0010598489200510767,
   0.0008898783936896358,
   0.0010170456342869592,
   0.0010384039515845983,
   0.001071572074622764,
   0.0007925344717354874,
   0.0009938363882785193,
   0.0010087222720957928,
   0.0009423033304975607,
   0.0010057298565940378,
   0.0010386069944346426,
   0.001718360203475712,
   0.0015148242142241535,
   0.0009443207082342663,
   0.0008526784010139412,
   0.0009342040046062381,
   0.0007806473168681773,
   0.0011120497041248506,
   0.002222815931800673,
   0.0016475400686411074,
   0.0008764894941374024,
   0.0008189492183416888,
   0.0008395008040496894,
   0.0012653135974926878]}}
   