NAME|AssembledModuleSQ_PreProd
DATE|04:18:24
TIME|10:56:54
DATA|distance_topleft.DX|   DX|0.00000| 
DATA|distance_topleft.DY|   DY|0.00000| 
DATA|distance_bottomright.DX|   DX|0.00000| 
DATA|distance_bottomright.DY|   DY|0.00000| 
DATA|Pickup1_1.Z|    Z|-11.60766| 
DATA|Pickup1_2.Z|    Z|-11.60636| 
DATA|Pickup1_3.Z|    Z|-11.60948| 
DATA|Pickup1_4.Z|    Z|-11.60582| 
DATA|Pickup1_5.Z|    Z|-11.60935| 
DATA|Pickup1_6.Z|    Z|-11.61052| 
DATA|Pickup1_7.Z|    Z|-11.60793| 
DATA|Pickup1_8.Z|    Z|-11.60644| 
DATA|Pickup1_9.Z|    Z|-11.60544| 
DATA|Pickup1_10.Z|    Z|-11.60552| 
DATA|Pickup4_1.Z|    Z|-11.60473| 
DATA|Pickup4_2.Z|    Z|-11.60319| 
DATA|Pickup4_3.Z|    Z|-11.60445| 
DATA|Pickup4_4.Z|    Z|-11.60528| 
DATA|Pickup4_5.Z|    Z|-11.60223| 
DATA|Pickup4_6.Z|    Z|-11.60304| 
DATA|Pickup4_7.Z|    Z|-11.60658| 
DATA|Pickup4_8.Z|    Z|-11.60513| 
DATA|Pickup4_9.Z|    Z|-11.60286| 
DATA|Pickup4_10.Z|    Z|-11.60580| 
DATA|Pickup3_1.Z|    Z|-11.59402| 
DATA|Pickup3_2.Z|    Z|-11.59281| 
DATA|Pickup3_3.Z|    Z|-11.59629| 
DATA|Pickup3_4.Z|    Z|-11.59561| 
DATA|Pickup3_5.Z|    Z|-11.59269| 
DATA|Pickup3_6.Z|    Z|-11.59112| 
DATA|Pickup3_7.Z|    Z|-11.59395| 
DATA|Pickup3_8.Z|    Z|-11.59561| 
DATA|Pickup3_9.Z|    Z|-11.59569| 
DATA|Pickup3_10.Z|    Z|-11.59364| 
DATA|Pickup2_1.Z|    Z|-11.59831| 
DATA|Pickup2_2.Z|    Z|-11.59569| 
DATA|Pickup2_3.Z|    Z|-11.59880| 
DATA|Pickup2_4.Z|    Z|-11.59745| 
DATA|Pickup2_5.Z|    Z|-11.59690| 
DATA|Pickup2_6.Z|    Z|-11.59717| 
DATA|Pickup2_7.Z|    Z|-11.59817| 
DATA|Pickup2_8.Z|    Z|-11.59841| 
DATA|Pickup2_9.Z|    Z|-11.59656| 
DATA|Pickup2_10.Z|    Z|-11.59619| 
DATA|PC_1.Z|    Z|-10.25759| 
DATA|PC_2.Z|    Z|-10.24875| 
DATA|PC_3.Z|    Z|-10.26190| 
DATA|HV_1.Z|    Z|-9.92948| 
DATA|HV_2.Z|    Z|-9.92767| 
